source/CPU.vcd
$date
	Sun Mar  5 18:26:16 2023
$end
$version
	Icarus Verilog
$end
$timescale
	10ps
$end
$scope module testfixture $end
$var wire 8 ! value_o [7:0] $end
$var wire 1 " is_positive $end
$var wire 3 # easter_egg [2:0] $end
$var reg 1 $ Clk $end
$var reg 1 % DataOrReg $end
$var reg 5 & address [4:0] $end
$var reg 8 ' instr_i [7:0] $end
$var reg 1 ( reset $end
$var reg 2 ) vout_addr [1:0] $end
$var integer 32 * counter [31:0] $end
$var integer 32 + err [31:0] $end
$var integer 32 , flush [31:0] $end
$var integer 32 - idx [31:0] $end
$var integer 32 . j [31:0] $end
$var integer 32 / k [31:0] $end
$var integer 32 0 outfile [31:0] $end
$var integer 32 1 stall [31:0] $end
$scope module CPU $end
$var wire 1 % DataOrReg $end
$var wire 1 2 PC_Branch_Select $end
$var wire 5 3 address [4:0] $end
$var wire 1 $ clk_i $end
$var wire 8 4 instr_i [7:0] $end
$var wire 1 ( reset $end
$var wire 1 5 rst $end
$var wire 2 6 vout_addr [1:0] $end
$var wire 4 7 vector_signed_bits [3:0] $end
$var wire 1 8 toDataMemory $end
$var wire 12 9 swIm [11:0] $end
$var wire 32 : shiftLeft_data_o [31:0] $end
$var wire 32 ; reg_o [31:0] $end
$var wire 32 < pcSelect_data_o [31:0] $end
$var wire 12 = pcIm [11:0] $end
$var wire 32 > memToReg_data_o [31:0] $end
$var wire 4 ? is_positive_line [3:0] $end
$var wire 1 " is_positive $end
$var wire 1 @ isBranch $end
$var wire 32 A inst_addr [31:0] $end
$var wire 32 B inst [31:0] $end
$var wire 32 C data_mem_o [31:0] $end
$var wire 32 D aluToDM_data_o [31:0] $end
$var wire 32 E addPC [31:0] $end
$var wire 32 F VALU_v_o [31:0] $end
$var wire 3 G VALU_Control_VALUCtrl_o [2:0] $end
$var wire 32 H Sign_Extend_data_o [31:0] $end
$var wire 32 I Registers_RTdata_o [31:0] $end
$var wire 32 J Registers_RSdata_o [31:0] $end
$var wire 1 K RegEqual $end
$var wire 32 L PCImmExtend_data_o [31:0] $end
$var wire 1 M MUX_Control_RegWrite_o $end
$var wire 5 N MUX_Control_RegDst_o [4:0] $end
$var wire 1 O MUX_Control_MemWrite_o $end
$var wire 1 P MUX_Control_MemToReg_o $end
$var wire 1 Q MUX_Control_MemRead_o $end
$var wire 1 R MUX_Control_ALUSrc_o $end
$var wire 2 S MUX_Control_ALUOp_o [1:0] $end
$var wire 32 T MUX_ALUSrc_data_o [31:0] $end
$var wire 1 U MEM_WB_RegWrite_o $end
$var wire 5 V MEM_WB_RDaddr_o [4:0] $end
$var wire 1 W MEM_WB_MemToReg_o $end
$var wire 32 X MEM_WB_DataMemReadData_o [31:0] $end
$var wire 32 Y MEM_WB_ALUResult_o [31:0] $end
$var wire 32 Z IF_ID_pc_o [31:0] $end
$var wire 12 [ IF_ID_pcIm_o [11:0] $end
$var wire 32 \ IF_ID_inst_o [31:0] $end
$var wire 32 ] ID_EX_pc_o [31:0] $end
$var wire 32 ^ ID_EX_inst_o [31:0] $end
$var wire 32 _ ID_EX_SignExtended_o [31:0] $end
$var wire 1 ` ID_EX_RegWrite_o $end
$var wire 5 a ID_EX_RegDst_o [4:0] $end
$var wire 5 b ID_EX_RTaddr_o [4:0] $end
$var wire 5 c ID_EX_RSaddr_o [4:0] $end
$var wire 32 d ID_EX_RDData1_o [31:0] $end
$var wire 32 e ID_EX_RDData0_o [31:0] $end
$var wire 1 f ID_EX_MemWrite_o $end
$var wire 1 g ID_EX_MemToReg_o $end
$var wire 1 h ID_EX_MemRead_o $end
$var wire 1 i ID_EX_ALUSrc_o $end
$var wire 2 j ID_EX_ALUOp_o [1:0] $end
$var wire 1 k HazradDetect_Hazard_o $end
$var wire 2 l ForwardingUnit_ForwardB_o [1:0] $end
$var wire 2 m ForwardingUnit_ForwardA_o [1:0] $end
$var wire 32 n ForwardToData2_data_o [31:0] $end
$var wire 32 o ForwardToData1_data_o [31:0] $end
$var wire 32 p EX_MEM_instr_o [31:0] $end
$var wire 32 q EX_MEM_VALUResult_o [31:0] $end
$var wire 1 r EX_MEM_RegWrite_o $end
$var wire 5 s EX_MEM_RDaddr_o [4:0] $end
$var wire 32 t EX_MEM_RDData_o [31:0] $end
$var wire 1 u EX_MEM_MemWrite_o $end
$var wire 1 v EX_MEM_MemToReg_o $end
$var wire 1 w EX_MEM_MemRead_o $end
$var wire 32 x EX_MEM_ALUResult_o [31:0] $end
$var wire 32 y Data_Memory_data_o [31:0] $end
$var wire 1 z Control_immSelect_o $end
$var wire 1 { Control_RegWrite_o $end
$var wire 1 | Control_MemWr_o $end
$var wire 1 } Control_MemToReg_o $end
$var wire 1 ~ Control_MemRd_o $end
$var wire 1 !" Control_ALUSrc_o $end
$var wire 2 "" Control_ALUOp_o [1:0] $end
$var wire 32 #" AddSum_data_o [31:0] $end
$var wire 10 $" ALUfunct_in [9:0] $end
$var wire 32 %" ALU_data_o [31:0] $end
$var wire 1 &" ALU_Zero_o $end
$var wire 3 '" ALU_Control_ALUCtrl_o [2:0] $end
$var reg 3 (" easter_counter [2:0] $end
$var reg 3 )" easter_counter_next [2:0] $end
$var reg 3 *" easter_egg [2:0] $end
$var reg 1 +" easter_flag $end
$var reg 1 ," easter_flag_next $end
$var reg 8 -" egg1 [7:0] $end
$var reg 8 ." egg2 [7:0] $end
$var reg 8 /" egg3 [7:0] $end
$var reg 1 0" flag $end
$var reg 1 1" start_i $end
$var reg 8 2" value_o [7:0] $end
$scope module ALU $end
$var wire 32 3" data2_i [31:0] $end
$var wire 32 4" data1_i [31:0] $end
$var wire 3 5" ALUCtrl_i [2:0] $end
$var reg 1 &" Zero_o $end
$var reg 32 6" data_o [31:0] $end
$upscope $end
$scope module ALU_Control $end
$var wire 10 7" funct_i [9:0] $end
$var wire 2 8" ALUOp_i [1:0] $end
$var reg 3 9" ALUCtrl_o [2:0] $end
$upscope $end
$scope module AddSum $end
$var wire 3 :" ALUCtrl_i [2:0] $end
$var wire 32 ;" data2_i [31:0] $end
$var wire 32 <" data1_i [31:0] $end
$var reg 1 =" Zero_o $end
$var reg 32 >" data_o [31:0] $end
$upscope $end
$scope module Add_PC $end
$var wire 32 ?" data2_in [31:0] $end
$var wire 32 @" data_o [31:0] $end
$var wire 32 A" data1_in [31:0] $end
$upscope $end
$scope module Control $end
$var wire 7 B" Op_i [6:0] $end
$var reg 2 C" ALUOp_o [1:0] $end
$var reg 1 !" ALUSrc_o $end
$var reg 1 ~ MemRd_o $end
$var reg 1 } MemToReg_o $end
$var reg 1 | MemWr_o $end
$var reg 1 { RegWrite_o $end
$var reg 1 z immSelect_o $end
$upscope $end
$scope module Data_Memory $end
$var wire 1 $ clk_i $end
$var wire 5 D" op_addr [4:0] $end
$var wire 1 5 reset $end
$var wire 32 E" op [31:0] $end
$var wire 32 F" data_o [31:0] $end
$var wire 32 G" data_mem_o [31:0] $end
$var wire 32 H" data_i [31:0] $end
$var wire 32 I" addr_i [31:0] $end
$var wire 1 u MemWrite_i $end
$var wire 1 w MemRead_i $end
$var integer 32 J" i [31:0] $end
$upscope $end
$scope module EX_MEM $end
$var wire 32 K" ALUResult_i [31:0] $end
$var wire 1 $ clk_i $end
$var wire 1 1" start_i $end
$var wire 1 &" zero_i $end
$var wire 32 L" pc_i [31:0] $end
$var wire 32 M" instr_i [31:0] $end
$var wire 32 N" VALUResult_i [31:0] $end
$var wire 1 ` RegWrite_i $end
$var wire 5 O" RDaddr_i [4:0] $end
$var wire 32 P" RDData_i [31:0] $end
$var wire 1 f MemWrite_i $end
$var wire 1 g MemToReg_i $end
$var wire 1 h MemRead_i $end
$var reg 32 Q" ALUResult_o [31:0] $end
$var reg 1 w MemRead_o $end
$var reg 1 v MemToReg_o $end
$var reg 1 u MemWrite_o $end
$var reg 32 R" RDData_o [31:0] $end
$var reg 5 S" RDaddr_o [4:0] $end
$var reg 1 r RegWrite_o $end
$var reg 32 T" VALUResult_o [31:0] $end
$var reg 32 U" instr_o [31:0] $end
$var reg 32 V" pc_o [31:0] $end
$var reg 1 W" zero_o $end
$upscope $end
$scope module ForwardToData1 $end
$var wire 32 X" EX_MEM_i [31:0] $end
$var wire 2 Y" select_i [1:0] $end
$var wire 32 Z" data_i [31:0] $end
$var wire 32 [" MEM_WB_i [31:0] $end
$var reg 32 \" data_o [31:0] $end
$upscope $end
$scope module ForwardToData2 $end
$var wire 32 ]" EX_MEM_i [31:0] $end
$var wire 2 ^" select_i [1:0] $end
$var wire 32 _" data_i [31:0] $end
$var wire 32 `" MEM_WB_i [31:0] $end
$var reg 32 a" data_o [31:0] $end
$upscope $end
$scope module ForwardingUnit $end
$var wire 5 b" EX_MEM_RD_i [4:0] $end
$var wire 1 r EX_MEM_RegWrite_i $end
$var wire 1 U MEM_WB_RegWrite_i $end
$var wire 5 c" MEM_WB_RD_i [4:0] $end
$var wire 5 d" ID_EX_RT_i [4:0] $end
$var wire 5 e" ID_EX_RS_i [4:0] $end
$var reg 2 f" ForwardA_o [1:0] $end
$var reg 2 g" ForwardB_o [1:0] $end
$upscope $end
$scope module HazradDetect $end
$var wire 5 h" ID_EXrd_i [4:0] $end
$var wire 5 i" IF_IDrs1_i [4:0] $end
$var wire 5 j" IF_IDrs2_i [4:0] $end
$var wire 1 h ID_EX_MemRead_i $end
$var wire 1 k Hazard_o $end
$upscope $end
$scope module ID_EX $end
$var wire 1 2 PC_branch_select_i $end
$var wire 5 k" RSaddr_i [4:0] $end
$var wire 5 l" RTaddr_i [4:0] $end
$var wire 1 $ clk_i $end
$var wire 1 1" start_i $end
$var wire 32 m" pc_i [31:0] $end
$var wire 32 n" pcEx_i [31:0] $end
$var wire 32 o" inst_i [31:0] $end
$var wire 32 p" SignExtended_i [31:0] $end
$var wire 1 M RegWrite_i $end
$var wire 5 q" RegDst_i [4:0] $end
$var wire 32 r" RDData1_i [31:0] $end
$var wire 32 s" RDData0_i [31:0] $end
$var wire 1 O MemWrite_i $end
$var wire 1 P MemToReg_i $end
$var wire 1 Q MemRead_i $end
$var wire 1 R ALUSrc_i $end
$var wire 2 t" ALUOp_i [1:0] $end
$var reg 2 u" ALUOp_o [1:0] $end
$var reg 1 i ALUSrc_o $end
$var reg 1 h MemRead_o $end
$var reg 1 g MemToReg_o $end
$var reg 1 f MemWrite_o $end
$var reg 1 v" PC_branch_select_o $end
$var reg 32 w" RDData0_o [31:0] $end
$var reg 32 x" RDData1_o [31:0] $end
$var reg 5 y" RSaddr_o [4:0] $end
$var reg 5 z" RTaddr_o [4:0] $end
$var reg 5 {" RegDst_o [4:0] $end
$var reg 1 ` RegWrite_o $end
$var reg 32 |" SignExtended_o [31:0] $end
$var reg 32 }" inst_o [31:0] $end
$var reg 32 ~" pcEx_o [31:0] $end
$var reg 32 !# pc_o [31:0] $end
$upscope $end
$scope module IF_ID $end
$var wire 1 $ clk_i $end
$var wire 1 2 flush_i $end
$var wire 1 k hazard_i $end
$var wire 12 "# pcIm_i [11:0] $end
$var wire 1 1" start_i $end
$var wire 32 ## pc_i [31:0] $end
$var wire 32 $# inst_i [31:0] $end
$var reg 32 %# inst_o [31:0] $end
$var reg 12 &# pcIm_o [11:0] $end
$var reg 32 '# pc_o [31:0] $end
$upscope $end
$scope module Instruction_Memory $end
$var wire 1 $ clk $end
$var wire 8 (# instr_i [7:0] $end
$var wire 32 )# instr_o [31:0] $end
$var wire 1 5 reset $end
$var wire 32 *# addr_i [31:0] $end
$var reg 6 +# address_read [5:0] $end
$var reg 2 ,# counter [1:0] $end
$var reg 2 -# counter_next [1:0] $end
$var reg 1 .# flag $end
$var reg 1 /# flag_next $end
$var reg 8 0# instr_read [7:0] $end
$var reg 6 1# instr_wr_address [5:0] $end
$var reg 6 2# instr_wr_address_next [5:0] $end
$var reg 2 3# quad [1:0] $end
$var reg 2 4# quad_d1 [1:0] $end
$var integer 32 5# i [31:0] $end
$upscope $end
$scope module MEM_WB $end
$var wire 32 6# DataMemReadData_i [31:0] $end
$var wire 1 v MemToReg_i $end
$var wire 32 7# RDData_i [31:0] $end
$var wire 5 8# RDaddr_i [4:0] $end
$var wire 1 r RegWrite_i $end
$var wire 1 $ clk_i $end
$var wire 1 1" start_i $end
$var wire 32 9# ALUResult_i [31:0] $end
$var reg 32 :# ALUResult_o [31:0] $end
$var reg 32 ;# DataMemReadData_o [31:0] $end
$var reg 1 W MemToReg_o $end
$var reg 32 <# RDData_o [31:0] $end
$var reg 5 =# RDaddr_o [4:0] $end
$var reg 1 U RegWrite_o $end
$upscope $end
$scope module MUX_ALUSrc $end
$var wire 32 ># data1_i [31:0] $end
$var wire 32 ?# data2_i [31:0] $end
$var wire 1 i select_i $end
$var wire 32 @# data_o [31:0] $end
$upscope $end
$scope module MUX_Control $end
$var wire 2 A# ALUOp_i [1:0] $end
$var wire 1 !" ALUSrc_i $end
$var wire 1 k Hazard_i $end
$var wire 1 ~ MemRead_i $end
$var wire 1 } MemToReg_i $end
$var wire 1 | MemWrite_i $end
$var wire 5 B# RegDst_i [4:0] $end
$var wire 1 { RegWrite_i $end
$var reg 2 C# ALUOp_o [1:0] $end
$var reg 1 R ALUSrc_o $end
$var reg 1 Q MemRead_o $end
$var reg 1 P MemToReg_o $end
$var reg 1 O MemWrite_o $end
$var reg 5 D# RegDst_o [4:0] $end
$var reg 1 M RegWrite_o $end
$upscope $end
$scope module PC $end
$var wire 1 $ clk_i $end
$var wire 1 k hazardpc_i $end
$var wire 1 1" start_i $end
$var wire 32 E# pc_i [31:0] $end
$var reg 1 F# flag $end
$var reg 1 G# flag_next $end
$var reg 32 H# pc_o [31:0] $end
$upscope $end
$scope module PCImmExtend $end
$var wire 12 I# data0_i [11:0] $end
$var wire 12 J# data1_i [11:0] $end
$var wire 32 K# data_o [31:0] $end
$var wire 1 L# select_i $end
$upscope $end
$scope module Registers $end
$var wire 5 M# RDaddr_i [4:0] $end
$var wire 5 N# RSaddr_i [4:0] $end
$var wire 32 O# RSdata_o [31:0] $end
$var wire 5 P# RTaddr_i [4:0] $end
$var wire 32 Q# RTdata_o [31:0] $end
$var wire 1 U RegWrite_i $end
$var wire 1 $ clk_i $end
$var wire 4 R# is_pos_i [3:0] $end
$var wire 5 S# op_address [4:0] $end
$var wire 4 T# pos_o [3:0] $end
$var wire 32 U# reg_o [31:0] $end
$var wire 1 5 reset $end
$var wire 32 V# RDdata_i [31:0] $end
$var integer 32 W# i [31:0] $end
$upscope $end
$scope module Sign_Extend $end
$var wire 12 X# data0_i [11:0] $end
$var wire 12 Y# data1_i [11:0] $end
$var wire 1 z select_i $end
$var wire 32 Z# data_o [31:0] $end
$upscope $end
$scope module VALU $end
$var wire 32 [# v1_i [31:0] $end
$var wire 32 \# v2_i [31:0] $end
$var wire 16 ]# a8 [15:0] $end
$var wire 16 ^# a7 [15:0] $end
$var wire 16 _# a6 [15:0] $end
$var wire 16 `# a5 [15:0] $end
$var wire 16 a# a4 [15:0] $end
$var wire 16 b# a3 [15:0] $end
$var wire 16 c# a2 [15:0] $end
$var wire 16 d# a1 [15:0] $end
$var wire 3 e# VALUCtrl_i [2:0] $end
$var reg 8 f# b1 [7:0] $end
$var reg 8 g# b2 [7:0] $end
$var reg 8 h# b3 [7:0] $end
$var reg 8 i# b4 [7:0] $end
$var reg 8 j# b5 [7:0] $end
$var reg 8 k# b6 [7:0] $end
$var reg 8 l# b7 [7:0] $end
$var reg 8 m# b8 [7:0] $end
$var reg 8 n# e1 [7:0] $end
$var reg 8 o# e2 [7:0] $end
$var reg 8 p# e3 [7:0] $end
$var reg 8 q# e4 [7:0] $end
$var reg 4 r# over [3:0] $end
$var reg 16 s# s1 [15:0] $end
$var reg 16 t# s2 [15:0] $end
$var reg 16 u# s3 [15:0] $end
$var reg 16 v# s4 [15:0] $end
$var reg 32 w# v_o [31:0] $end
$upscope $end
$scope module VALU_Control $end
$var wire 10 x# vfunct_i [9:0] $end
$var reg 3 y# VALUCtrl_o [2:0] $end
$upscope $end
$scope module aluToDM $end
$var wire 32 z# data1_i [31:0] $end
$var wire 32 {# data2_i [31:0] $end
$var wire 1 8 select_i $end
$var wire 32 |# data_o [31:0] $end
$upscope $end
$scope module memToReg $end
$var wire 32 }# data1_i [31:0] $end
$var wire 32 ~# data2_i [31:0] $end
$var wire 1 W select_i $end
$var wire 32 !$ data_o [31:0] $end
$upscope $end
$scope module pcSelect $end
$var wire 32 "$ data1_i [31:0] $end
$var wire 32 #$ data2_i [31:0] $end
$var wire 1 @ select_i $end
$var wire 32 $$ data_o [31:0] $end
$upscope $end
$scope module shiftLeft $end
$var wire 32 %$ data_i [31:0] $end
$var wire 32 &$ data_o [31:0] $end
$upscope $end
$upscope $end
$upscope $end
$enddefinitions $end
#0
$dumpvars
bx0 &$
bx %$
bx $$
bx #$
b100 "$
b0 !$
b0 ~#
b0 }#
b0 |#
b0 {#
b0 z#
b0 y#
b0 x#
b0 w#
bx v#
bx u#
bx t#
bx s#
b0 r#
bx q#
bx p#
bx o#
bx n#
b0 m#
b0 l#
b0 k#
b0 j#
b0 i#
b0 h#
b0 g#
b0 f#
b0 e#
b0 d#
b0 c#
b0 b#
b0 a#
b0 `#
b0 _#
b0 ^#
b0 ]#
b0 \#
b0 [#
bx Z#
bx Y#
bx X#
b100000 W#
b0 V#
b0 U#
b0 T#
b1000 S#
b0 R#
bx Q#
bx P#
bx O#
bx N#
b0 M#
0L#
bx K#
b0 J#
bx I#
b0 H#
0G#
0F#
bx E#
bx D#
bx C#
bx B#
bx A#
b0 @#
b0 ?#
b0 >#
b0 =#
b0 <#
b0 ;#
b0 :#
b0 9#
b0 8#
b0 7#
b0 6#
b111111 5#
bx 4#
b0 3#
b0 2#
b0 1#
b0 0#
0/#
0.#
b0 -#
b0 ,#
b0 +#
b0 *#
b0 )#
b0 (#
bx '#
bx &#
bx %#
b0 $#
b0 ##
b0 "#
b0 !#
b0 ~"
b0 }"
b0 |"
b0 {"
b0 z"
b0 y"
b0 x"
b0 w"
0v"
b0 u"
bx t"
bx s"
bx r"
bx q"
bx p"
bx o"
bx n"
bx m"
bx l"
bx k"
bx j"
bx i"
bx h"
b0 g"
b0 f"
b0 e"
b0 d"
b0 c"
b0 b"
b0 a"
b0 `"
b0 _"
b0 ^"
b0 ]"
b0 \"
b0 ["
b0 Z"
b0 Y"
b0 X"
0W"
b0 V"
b0 U"
b0 T"
b0 S"
b0 R"
b0 Q"
b0 P"
b0 O"
b0 N"
b0 M"
b0 L"
b0 K"
b100000 J"
b0 I"
b0 H"
b0 G"
b0 F"
b0 E"
b1000 D"
bx C"
bx B"
b0 A"
b100 @"
b100 ?"
bx >"
x="
bx <"
bx0 ;"
b1 :"
b1 9"
b0 8"
b0 7"
b0 6"
b1 5"
b0 4"
b0 3"
b0 2"
01"
00"
b10011010 /"
b110110 ."
b1101 -"
0,"
0+"
bx *"
b0 )"
b0 ("
b1 '"
1&"
b0 %"
b0 $"
bx #"
bx ""
x!"
x~
x}
x|
x{
xz
b0 y
b0 x
0w
0v
0u
b0 t
b0 s
0r
b0 q
b0 p
b0 o
b0 n
b0 m
b0 l
0k
b0 j
0i
0h
0g
0f
b0 e
b0 d
b0 c
b0 b
b0 a
0`
b0 _
b0 ^
b0 ]
bx \
bx [
bx Z
b0 Y
b0 X
0W
b0 V
0U
b0 T
bx S
xR
xQ
xP
xO
bx N
xM
bx L
xK
bx J
bx I
bx H
b0 G
b0 F
b100 E
b0 D
b0 C
b0 B
b0 A
x@
b0 ?
b0 >
b0 =
bx <
b0 ;
bx0 :
b0 9
08
b0 7
b11 6
15
b0 4
b1000 3
x2
b0 1
b11 0
b100000001 /
b0 .
b0 -
b0 ,
b0 +
b0 *
b11 )
1(
b0 '
b1000 &
1%
1$
bx #
0"
b0 !
$end
#500
b100000 W#
0$
#1000
0O
0Q
0P
0M
1R
b11 S
b11 t"
b11 C#
b0 N
b0 q"
b0 D#
b0 #"
b0 >"
b0 #$
1="
b100 <
b100 E#
b100 $$
b0 H
b0 p"
b0 Z#
02
0z
0}
0|
0~
0{
1!"
b11 ""
b11 C"
b11 A#
0@
b0 :
b0 ;"
b0 &$
b0 B#
b0 h"
b0 j"
b0 i"
b0 l"
b0 k"
b0 Y#
b0 X#
1K
b0 I
b0 r"
b0 Q#
b0 P#
b0 J
b0 s"
b0 O#
b0 N#
b0 B"
b0 4#
b11 3#
b0 L
b0 n"
b0 K#
b0 %$
b0 [
b0 &#
b0 I#
b0 \
b0 o"
b0 %#
b0 Z
b0 <"
b0 m"
b0 '#
b0 #
b0 *"
b1 *
1$
05
0(
#1250
1/#
b11111110 '
b11111110 4
b11111110 (#
#1500
0$
#2000
b1 -#
b11111110 0#
b11 4#
1.#
10"
b10 *
1$
#2250
b0 '
b0 4
b0 (#
#2500
0$
#3000
b111111100000 9
b101111110000 =
b101111110000 "#
b10 -#
b11111110000000000000000000000000 B
b11111110000000000000000000000000 $#
b11111110000000000000000000000000 )#
b0 0#
b1 ,#
b11 *
1$
#3500
0$
#4000
b0 9
b0 =
b0 "#
b11 -#
b0 B
b0 $#
b0 )#
b10 3#
b10 ,#
b100 *
1$
#4250
b10 '
b10 4
b10 (#
#4500
0$
#5000
b1 2#
b0 -#
b10 0#
b10 4#
b1 3#
b11 ,#
b101 *
1$
#5250
b10011 '
b10011 4
b10011 (#
#5500
0$
#6000
b100 9
b10 =
b10 "#
b1 -#
b1000000000 B
b1000000000 $#
b1000000000 )#
b10011 0#
b1 1#
b1 4#
b0 3#
b0 ,#
b110 *
1$
#6250
b0 '
b0 4
b0 (#
#6500
0$
#7000
b10 -#
b1000010011 B
b1000010011 $#
b1000010011 )#
b0 0#
b1 +#
b0 4#
b11 3#
b1 ,#
b111 *
1$
#7500
0$
#8000
b11 -#
b11 4#
b10 3#
b10 ,#
b1000 *
1$
#8250
b100 '
b100 4
b100 (#
#8500
0$
#9000
b10 2#
b0 -#
b100 0#
b10 4#
b1 3#
b11 ,#
b1001 *
1$
#9250
b10011 '
b10011 4
b10011 (#
#9500
0$
#10000
b1 -#
b10011 0#
b10 1#
b1 4#
b0 3#
b0 ,#
b1010 *
1$
#10250
b0 '
b0 4
b0 (#
#10500
0$
#11000
b10 -#
b0 0#
b10 +#
b0 4#
b11 3#
b1 ,#
b1011 *
1$
#11250
b10000 '
b10000 4
b10000 (#
#11500
0$
#12000
b11 -#
b10000 0#
b11 4#
b10 3#
b10 ,#
b1100 *
1$
#12250
b100 '
b100 4
b100 (#
#12500
0$
#13000
b11 2#
b0 -#
b100 0#
b10 4#
b1 3#
b11 ,#
b1101 *
1$
#13250
b10010011 '
b10010011 4
b10010011 (#
#13500
0$
#14000
b1 -#
b10010011 0#
b11 1#
b1 4#
b0 3#
b0 ,#
b1110 *
1$
#14250
b0 '
b0 4
b0 (#
#14500
0$
#15000
b10 -#
b0 0#
b11 +#
b0 4#
b11 3#
b1 ,#
b1111 *
1$
#15250
b11110000 '
b11110000 4
b11110000 (#
#15500
0$
#16000
b11 -#
b11110000 0#
b11 4#
b10 3#
b10 ,#
b10000 *
1$
#16250
b101 '
b101 4
b101 (#
#16500
0$
#17000
b100 2#
b0 -#
b101 0#
b10 4#
b1 3#
b11 ,#
b10001 *
1$
#17250
b10011 '
b10011 4
b10011 (#
#17500
0$
#18000
b1 -#
b10011 0#
b100 1#
b1 4#
b0 3#
b0 ,#
b10010 *
1$
#18250
b0 '
b0 4
b0 (#
#18500
0$
#19000
b10 -#
b0 0#
b100 +#
b0 4#
b11 3#
b1 ,#
b10011 *
1$
#19500
0$
#20000
b11 -#
b11 4#
b10 3#
b10 ,#
b10100 *
1$
#20250
b1000 '
b1000 4
b1000 (#
#20500
0$
#21000
b101 2#
b0 -#
b1000 0#
b10 4#
b1 3#
b11 ,#
b10101 *
1$
#21250
b10010011 '
b10010011 4
b10010011 (#
#21500
0$
#22000
b1 -#
b10010011 0#
b101 1#
b1 4#
b0 3#
b0 ,#
b10110 *
1$
#22250
b0 '
b0 4
b0 (#
#22500
0$
#23000
b10 -#
b0 0#
b101 +#
b0 4#
b11 3#
b1 ,#
b10111 *
1$
#23250
b10000 '
b10000 4
b10000 (#
#23500
0$
#24000
b11 -#
b10000 0#
b11 4#
b10 3#
b10 ,#
b11000 *
1$
#24250
b1001 '
b1001 4
b1001 (#
#24500
0$
#25000
b110 2#
b0 -#
b1001 0#
b10 4#
b1 3#
b11 ,#
b11001 *
1$
#25250
b10011 '
b10011 4
b10011 (#
#25500
0$
#26000
b1 -#
b10011 0#
b110 1#
b1 4#
b0 3#
b0 ,#
b11010 *
1$
#26250
b0 '
b0 4
b0 (#
#26500
0$
#27000
b10 -#
b0 0#
b110 +#
b0 4#
b11 3#
b1 ,#
b11011 *
1$
#27250
b10100010 '
b10100010 4
b10100010 (#
#27500
0$
#28000
b11 -#
b10100010 0#
b11 4#
b10 3#
b10 ,#
b11100 *
1$
#28250
b100000 '
b100000 4
b100000 (#
#28500
0$
#29000
b111 2#
b0 -#
b100000 0#
b10 4#
b1 3#
b11 ,#
b11101 *
1$
#29250
b100011 '
b100011 4
b100011 (#
#29500
0$
#30000
b1 -#
b100011 0#
b111 1#
b1 4#
b0 3#
b0 ,#
b11110 *
1$
#30250
b0 '
b0 4
b0 (#
#30500
0$
#31000
b10 -#
b0 0#
b111 +#
b0 4#
b11 3#
b1 ,#
b11111 *
1$
#31250
b10 '
b10 4
b10 (#
#31500
0$
#32000
b11 -#
b10 0#
b11 4#
b10 3#
b10 ,#
b100000 *
1$
#32250
b101000 '
b101000 4
b101000 (#
#32500
0$
#33000
b1000 2#
b0 -#
b101000 0#
b10 4#
b1 3#
b11 ,#
b100001 *
1$
#33250
b11 '
b11 4
b11 (#
#33500
0$
#34000
b1 -#
b11 0#
b1000 1#
b1 4#
b0 3#
b0 ,#
b100010 *
1$
#34250
b0 '
b0 4
b0 (#
#34500
0$
#35000
b10 -#
b0 0#
b1000 +#
b0 4#
b11 3#
b1 ,#
b100011 *
1$
#35250
b1000 '
b1000 4
b1000 (#
#35500
0$
#36000
b11 -#
b1000 0#
b11 4#
b10 3#
b10 ,#
b100100 *
1$
#36250
b1010 '
b1010 4
b1010 (#
#36500
0$
#37000
b1001 2#
b0 -#
b1010 0#
b10 4#
b1 3#
b11 ,#
b100101 *
1$
#37250
b10011 '
b10011 4
b10011 (#
#37500
0$
#38000
b1 -#
b10011 0#
b1001 1#
b1 4#
b0 3#
b0 ,#
b100110 *
1$
#38250
b1000000 '
b1000000 4
b1000000 (#
#38500
0$
#39000
b10 -#
b1000000 0#
b1001 +#
b0 4#
b11 3#
b1 ,#
b100111 *
1$
#39250
b10011000 '
b10011000 4
b10011000 (#
#39500
0$
#40000
b11 -#
b10011000 0#
b11 4#
b10 3#
b10 ,#
b101000 *
1$
#40250
b1000 '
b1000 4
b1000 (#
#40500
0$
#41000
b1010 2#
b0 -#
b1000 0#
b10 4#
b1 3#
b11 ,#
b101001 *
1$
#41250
b110011 '
b110011 4
b110011 (#
#41500
0$
#42000
b1 -#
b110011 0#
b1010 1#
b1 4#
b0 3#
b0 ,#
b101010 *
1$
#42250
b1 '
b1 4
b1 (#
#42500
0$
#43000
b10 -#
b1 0#
b1010 +#
b0 4#
b11 3#
b1 ,#
b101011 *
1$
#43250
b101000 '
b101000 4
b101000 (#
#43500
0$
#44000
b11 -#
b101000 0#
b11 4#
b10 3#
b10 ,#
b101100 *
1$
#44250
b10001000 '
b10001000 4
b10001000 (#
#44500
0$
#45000
b1011 2#
b0 -#
b10001000 0#
b10 4#
b1 3#
b11 ,#
b101101 *
1$
#45250
b10110011 '
b10110011 4
b10110011 (#
#45500
0$
#46000
b1 -#
b10110011 0#
b1011 1#
b1 4#
b0 3#
b0 ,#
b101110 *
1$
#46250
b0 '
b0 4
b0 (#
#46500
0$
#47000
b10 -#
b0 0#
b1011 +#
b0 4#
b11 3#
b1 ,#
b101111 *
1$
#47250
b1001 '
b1001 4
b1001 (#
#47500
0$
#48000
b11 -#
b1001 0#
b11 4#
b10 3#
b10 ,#
b110000 *
1$
#48500
0$
#49000
b1100 2#
b0 -#
b10 4#
b1 3#
b11 ,#
b110001 *
1$
#49250
b10010011 '
b10010011 4
b10010011 (#
#49500
0$
#50000
b1 -#
b10010011 0#
b1100 1#
b1 4#
b0 3#
b0 ,#
b110010 *
1$
#50250
b0 '
b0 4
b0 (#
#50500
0$
#51000
b10 -#
b0 0#
b1100 +#
b0 4#
b11 3#
b1 ,#
b110011 *
1$
#51250
b1000 '
b1000 4
b1000 (#
#51500
0$
#52000
b11 -#
b1000 0#
b11 4#
b10 3#
b10 ,#
b110100 *
1$
#52250
b10001001 '
b10001001 4
b10001001 (#
#52500
0$
#53000
b1101 2#
b0 -#
b10001001 0#
b10 4#
b1 3#
b11 ,#
b110101 *
1$
#53250
b10011 '
b10011 4
b10011 (#
#53500
0$
#54000
b1 -#
b10011 0#
b1101 1#
b1 4#
b0 3#
b0 ,#
b110110 *
1$
#54250
b0 '
b0 4
b0 (#
#54500
0$
#55000
b10 -#
b0 0#
b1101 +#
b0 4#
b11 3#
b1 ,#
b110111 *
1$
#55250
b1001 '
b1001 4
b1001 (#
#55500
0$
#56000
b11 -#
b1001 0#
b11 4#
b10 3#
b10 ,#
b111000 *
1$
#56250
b10001000 '
b10001000 4
b10001000 (#
#56500
0$
#57000
b1110 2#
b0 -#
b10001000 0#
b10 4#
b1 3#
b11 ,#
b111001 *
1$
#57250
b10010011 '
b10010011 4
b10010011 (#
#57500
0$
#58000
b1 -#
b10010011 0#
b1110 1#
b1 4#
b0 3#
b0 ,#
b111010 *
1$
#58250
b0 '
b0 4
b0 (#
#58500
0$
#59000
b10 -#
b0 0#
b1110 +#
b0 4#
b11 3#
b1 ,#
b111011 *
1$
